Experiment 1 - Snippets in default order

----------------------------
1.0 % done
Best ROUGE score: 0.18452
Current ROUGE score: 0.18452
Best weights: [1.0, 1.0]
----------------------------
2.0 % done
Best ROUGE score: 0.18452
Current ROUGE score: 0.17843
Best weights: [1.0, 1.0]
----------------------------
3.0 % done
Best ROUGE score: 0.18452
Current ROUGE score: 0.17337
Best weights: [1.0, 1.0]
----------------------------
4.0 % done
Best ROUGE score: 0.18452
Current ROUGE score: 0.1731
Best weights: [1.0, 1.0]
----------------------------
5.0 % done
Best ROUGE score: 0.18452
Current ROUGE score: 0.17322
Best weights: [1.0, 1.0]
----------------------------
6.0 % done
Best ROUGE score: 0.18452
Current ROUGE score: 0.17312
Best weights: [1.0, 1.0]
----------------------------
7.000000000000001 % done
Best ROUGE score: 0.18452
Current ROUGE score: 0.1728
Best weights: [1.0, 1.0]
----------------------------
8.0 % done
Best ROUGE score: 0.18452
Current ROUGE score: 0.1728
Best weights: [1.0, 1.0]
----------------------------
9.0 % done
Best ROUGE score: 0.18452
Current ROUGE score: 0.1728
Best weights: [1.0, 1.0]
----------------------------
10.0 % done
Best ROUGE score: 0.18452
Current ROUGE score: 0.1728
Best weights: [1.0, 1.0]
----------------------------
11.0 % done
Best ROUGE score: 0.18796
Current ROUGE score: 0.18796
Best weights: [2.0, 1.0]
----------------------------
12.0 % done
Best ROUGE score: 0.18796
Current ROUGE score: 0.18452
Best weights: [2.0, 1.0]
----------------------------
13.0 % done
Best ROUGE score: 0.18796
Current ROUGE score: 0.17702
Best weights: [2.0, 1.0]
----------------------------
14.000000000000002 % done
Best ROUGE score: 0.18796
Current ROUGE score: 0.17843
Best weights: [2.0, 1.0]
----------------------------
15.0 % done
Best ROUGE score: 0.18796
Current ROUGE score: 0.17423
Best weights: [2.0, 1.0]
----------------------------
16.0 % done
Best ROUGE score: 0.18796
Current ROUGE score: 0.17337
Best weights: [2.0, 1.0]
----------------------------
17.0 % done
Best ROUGE score: 0.18796
Current ROUGE score: 0.173
Best weights: [2.0, 1.0]
----------------------------
18.0 % done
Best ROUGE score: 0.18796
Current ROUGE score: 0.1731
Best weights: [2.0, 1.0]
----------------------------
19.0 % done
Best ROUGE score: 0.18796
Current ROUGE score: 0.17316
Best weights: [2.0, 1.0]
----------------------------
20.0 % done
Best ROUGE score: 0.18796
Current ROUGE score: 0.17322
Best weights: [2.0, 1.0]
----------------------------
21.0 % done
Best ROUGE score: 0.18796
Current ROUGE score: 0.18136
Best weights: [2.0, 1.0]
----------------------------
22.0 % done
Best ROUGE score: 0.18796
Current ROUGE score: 0.18571
Best weights: [2.0, 1.0]
----------------------------
23.0 % done
Best ROUGE score: 0.18796
Current ROUGE score: 0.18452
Best weights: [2.0, 1.0]
----------------------------
24.0 % done
Best ROUGE score: 0.18796
Current ROUGE score: 0.17776
Best weights: [2.0, 1.0]
----------------------------
25.0 % done
Best ROUGE score: 0.18796
Current ROUGE score: 0.17714
Best weights: [2.0, 1.0]
----------------------------
26.0 % done
Best ROUGE score: 0.18796
Current ROUGE score: 0.17843
Best weights: [2.0, 1.0]
----------------------------
27.0 % done
Best ROUGE score: 0.18796
Current ROUGE score: 0.17436
Best weights: [2.0, 1.0]
----------------------------
28.000000000000004 % done
Best ROUGE score: 0.18796
Current ROUGE score: 0.17472
Best weights: [2.0, 1.0]
----------------------------
28.999999999999996 % done
Best ROUGE score: 0.18796
Current ROUGE score: 0.17337
Best weights: [2.0, 1.0]
----------------------------
30.0 % done
Best ROUGE score: 0.18796
Current ROUGE score: 0.173
Best weights: [2.0, 1.0]
----------------------------
31.0 % done
Best ROUGE score: 0.18796
Current ROUGE score: 0.1771
Best weights: [2.0, 1.0]
----------------------------
32.0 % done
Best ROUGE score: 0.18796
Current ROUGE score: 0.18796
Best weights: [2.0, 1.0]
----------------------------
33.0 % done
Best ROUGE score: 0.18796
Current ROUGE score: 0.18554
Best weights: [2.0, 1.0]
----------------------------
34.0 % done
Best ROUGE score: 0.18796
Current ROUGE score: 0.18452
Best weights: [2.0, 1.0]
----------------------------
35.0 % done
Best ROUGE score: 0.18796
Current ROUGE score: 0.17812
Best weights: [2.0, 1.0]
----------------------------
36.0 % done
Best ROUGE score: 0.18796
Current ROUGE score: 0.17702
Best weights: [2.0, 1.0]
----------------------------
37.0 % done
Best ROUGE score: 0.18796
Current ROUGE score: 0.17714
Best weights: [2.0, 1.0]
----------------------------
38.0 % done
Best ROUGE score: 0.18796
Current ROUGE score: 0.17843
Best weights: [2.0, 1.0]
----------------------------
39.0 % done
Best ROUGE score: 0.18796
Current ROUGE score: 0.17436
Best weights: [2.0, 1.0]
----------------------------
40.0 % done
Best ROUGE score: 0.18796
Current ROUGE score: 0.17423
Best weights: [2.0, 1.0]
----------------------------
41.0 % done
Best ROUGE score: 0.18796
Current ROUGE score: 0.17414
Best weights: [2.0, 1.0]
----------------------------
42.0 % done
Best ROUGE score: 0.18796
Current ROUGE score: 0.18318
Best weights: [2.0, 1.0]
----------------------------
43.0 % done
Best ROUGE score: 0.18796
Current ROUGE score: 0.18564
Best weights: [2.0, 1.0]
----------------------------
44.0 % done
Best ROUGE score: 0.18796
Current ROUGE score: 0.18554
Best weights: [2.0, 1.0]
----------------------------
45.0 % done
Best ROUGE score: 0.18796
Current ROUGE score: 0.18452
Best weights: [2.0, 1.0]
----------------------------
46.0 % done
Best ROUGE score: 0.18796
Current ROUGE score: 0.17812
Best weights: [2.0, 1.0]
----------------------------
47.0 % done
Best ROUGE score: 0.18796
Current ROUGE score: 0.17776
Best weights: [2.0, 1.0]
----------------------------
48.0 % done
Best ROUGE score: 0.18796
Current ROUGE score: 0.17714
Best weights: [2.0, 1.0]
----------------------------
49.0 % done
Best ROUGE score: 0.18796
Current ROUGE score: 0.17714
Best weights: [2.0, 1.0]
----------------------------
50.0 % done
Best ROUGE score: 0.18796
Current ROUGE score: 0.17843
Best weights: [2.0, 1.0]
----------------------------
51.0 % done
Best ROUGE score: 0.18796
Current ROUGE score: 0.17356
Best weights: [2.0, 1.0]
----------------------------
52.0 % done
Best ROUGE score: 0.18796
Current ROUGE score: 0.18136
Best weights: [2.0, 1.0]
----------------------------
53.0 % done
Best ROUGE score: 0.18796
Current ROUGE score: 0.18796
Best weights: [2.0, 1.0]
----------------------------
54.0 % done
Best ROUGE score: 0.18796
Current ROUGE score: 0.18571
Best weights: [2.0, 1.0]
----------------------------
55.00000000000001 % done
Best ROUGE score: 0.18796
Current ROUGE score: 0.18554
Best weights: [2.0, 1.0]
----------------------------
56.00000000000001 % done
Best ROUGE score: 0.18796
Current ROUGE score: 0.18452
Best weights: [2.0, 1.0]
----------------------------
56.99999999999999 % done
Best ROUGE score: 0.18796
Current ROUGE score: 0.17812
Best weights: [2.0, 1.0]
----------------------------
57.99999999999999 % done
Best ROUGE score: 0.18796
Current ROUGE score: 0.17776
Best weights: [2.0, 1.0]
----------------------------
59.0 % done
Best ROUGE score: 0.18796
Current ROUGE score: 0.17702
Best weights: [2.0, 1.0]
----------------------------
60.0 % done
Best ROUGE score: 0.18796
Current ROUGE score: 0.17714
Best weights: [2.0, 1.0]
----------------------------
61.0 % done
Best ROUGE score: 0.18796
Current ROUGE score: 0.17304
Best weights: [2.0, 1.0]
----------------------------
62.0 % done
Best ROUGE score: 0.18796
Current ROUGE score: 0.17634
Best weights: [2.0, 1.0]
----------------------------
63.0 % done
Best ROUGE score: 0.18796
Current ROUGE score: 0.18315
Best weights: [2.0, 1.0]
----------------------------
64.0 % done
Best ROUGE score: 0.18796
Current ROUGE score: 0.18571
Best weights: [2.0, 1.0]
----------------------------
65.0 % done
Best ROUGE score: 0.18796
Current ROUGE score: 0.18552
Best weights: [2.0, 1.0]
----------------------------
66.0 % done
Best ROUGE score: 0.18796
Current ROUGE score: 0.18554
Best weights: [2.0, 1.0]
----------------------------
67.0 % done
Best ROUGE score: 0.18796
Current ROUGE score: 0.18452
Best weights: [2.0, 1.0]
----------------------------
68.0 % done
Best ROUGE score: 0.18796
Current ROUGE score: 0.17812
Best weights: [2.0, 1.0]
----------------------------
69.0 % done
Best ROUGE score: 0.18796
Current ROUGE score: 0.17812
Best weights: [2.0, 1.0]
----------------------------
70.0 % done
Best ROUGE score: 0.18796
Current ROUGE score: 0.17776
Best weights: [2.0, 1.0]
----------------------------
71.0 % done
Best ROUGE score: 0.18796
Current ROUGE score: 0.17315
Best weights: [2.0, 1.0]
----------------------------
72.0 % done
Best ROUGE score: 0.18796
Current ROUGE score: 0.1771
Best weights: [2.0, 1.0]
----------------------------
73.0 % done
Best ROUGE score: 0.18796
Current ROUGE score: 0.18255
Best weights: [2.0, 1.0]
----------------------------
74.0 % done
Best ROUGE score: 0.18796
Current ROUGE score: 0.18796
Best weights: [2.0, 1.0]
----------------------------
75.0 % done
Best ROUGE score: 0.18796
Current ROUGE score: 0.18437
Best weights: [2.0, 1.0]
----------------------------
76.0 % done
Best ROUGE score: 0.18796
Current ROUGE score: 0.18554
Best weights: [2.0, 1.0]
----------------------------
77.0 % done
Best ROUGE score: 0.18796
Current ROUGE score: 0.18554
Best weights: [2.0, 1.0]
----------------------------
78.0 % done
Best ROUGE score: 0.18796
Current ROUGE score: 0.18452
Best weights: [2.0, 1.0]
----------------------------
79.0 % done
Best ROUGE score: 0.18796
Current ROUGE score: 0.17812
Best weights: [2.0, 1.0]
----------------------------
80.0 % done
Best ROUGE score: 0.18796
Current ROUGE score: 0.17812
Best weights: [2.0, 1.0]
----------------------------
81.0 % done
Best ROUGE score: 0.18796
Current ROUGE score: 0.17315
Best weights: [2.0, 1.0]
----------------------------
82.0 % done
Best ROUGE score: 0.18796
Current ROUGE score: 0.1741
Best weights: [2.0, 1.0]
----------------------------
83.0 % done
Best ROUGE score: 0.18796
Current ROUGE score: 0.18136
Best weights: [2.0, 1.0]
----------------------------
84.0 % done
Best ROUGE score: 0.18796
Current ROUGE score: 0.18315
Best weights: [2.0, 1.0]
----------------------------
85.0 % done
Best ROUGE score: 0.18796
Current ROUGE score: 0.18571
Best weights: [2.0, 1.0]
----------------------------
86.0 % done
Best ROUGE score: 0.18796
Current ROUGE score: 0.18571
Best weights: [2.0, 1.0]
----------------------------
87.0 % done
Best ROUGE score: 0.18796
Current ROUGE score: 0.18554
Best weights: [2.0, 1.0]
----------------------------
88.0 % done
Best ROUGE score: 0.18796
Current ROUGE score: 0.18554
Best weights: [2.0, 1.0]
----------------------------
89.0 % done
Best ROUGE score: 0.18796
Current ROUGE score: 0.18452
Best weights: [2.0, 1.0]
----------------------------
90.0 % done
Best ROUGE score: 0.18796
Current ROUGE score: 0.17812
Best weights: [2.0, 1.0]
----------------------------
91.0 % done
Best ROUGE score: 0.18796
Current ROUGE score: 0.17315
Best weights: [2.0, 1.0]
----------------------------
92.0 % done
Best ROUGE score: 0.18796
Current ROUGE score: 0.17414
Best weights: [2.0, 1.0]
----------------------------
93.0 % done
Best ROUGE score: 0.18796
Current ROUGE score: 0.17569
Best weights: [2.0, 1.0]
----------------------------
94.0 % done
Best ROUGE score: 0.18796
Current ROUGE score: 0.18318
Best weights: [2.0, 1.0]
----------------------------
95.0 % done
Best ROUGE score: 0.18796
Current ROUGE score: 0.18796
Best weights: [2.0, 1.0]
----------------------------
96.0 % done
Best ROUGE score: 0.18796
Current ROUGE score: 0.18564
Best weights: [2.0, 1.0]
----------------------------
97.0 % done
Best ROUGE score: 0.18796
Current ROUGE score: 0.18537
Best weights: [2.0, 1.0]
----------------------------
98.0 % done
Best ROUGE score: 0.18796
Current ROUGE score: 0.18554
Best weights: [2.0, 1.0]
----------------------------
99.0 % done
Best ROUGE score: 0.18796
Current ROUGE score: 0.18554
Best weights: [2.0, 1.0]
----------------------------
100.0 % done
Best ROUGE score: 0.18796
Current ROUGE score: 0.18452
Best weights: [2.0, 1.0]
Final weights: [2.0, 1.0]
----------------------------
2.2222222222222223 % done
Best ROUGE score: 0.16643
Current ROUGE score: 0.16643
Best thresholds: [0.10000000000000001, 0.0]
----------------------------
4.444444444444445 % done
Best ROUGE score: 0.17
Current ROUGE score: 0.17
Best thresholds: [0.20000000000000001, 0.0]
----------------------------
6.666666666666667 % done
Best ROUGE score: 0.17344
Current ROUGE score: 0.17344
Best thresholds: [0.20000000000000001, 0.10000000000000001]
----------------------------
8.88888888888889 % done
Best ROUGE score: 0.17763
Current ROUGE score: 0.17763
Best thresholds: [0.30000000000000004, 0.0]
----------------------------
11.11111111111111 % done
Best ROUGE score: 0.18796
Current ROUGE score: 0.18796
Best thresholds: [0.30000000000000004, 0.10000000000000001]
----------------------------
13.333333333333334 % done
Best ROUGE score: 0.18796
Current ROUGE score: 0.14925
Best thresholds: [0.30000000000000004, 0.10000000000000001]
----------------------------
15.555555555555555 % done
Best ROUGE score: 0.18796
Current ROUGE score: 0.18689
Best thresholds: [0.30000000000000004, 0.10000000000000001]
----------------------------
17.77777777777778 % done
Best ROUGE score: 0.18796
Current ROUGE score: 0.17448
Best thresholds: [0.30000000000000004, 0.10000000000000001]
----------------------------
20.0 % done
Best ROUGE score: 0.18796
Current ROUGE score: 0.14281
Best thresholds: [0.30000000000000004, 0.10000000000000001]
----------------------------
22.22222222222222 % done
Best ROUGE score: 0.18796
Current ROUGE score: 0.13972
Best thresholds: [0.30000000000000004, 0.10000000000000001]
----------------------------
24.444444444444443 % done
Best ROUGE score: 0.19374
Current ROUGE score: 0.19374
Best thresholds: [0.5, 0.0]
----------------------------
26.666666666666668 % done
Best ROUGE score: 0.19374
Current ROUGE score: 0.16767
Best thresholds: [0.5, 0.0]
----------------------------
28.888888888888886 % done
Best ROUGE score: 0.19374
Current ROUGE score: 0.14242
Best thresholds: [0.5, 0.0]
----------------------------
31.11111111111111 % done
Best ROUGE score: 0.19374
Current ROUGE score: 0.13855
Best thresholds: [0.5, 0.0]
----------------------------
33.33333333333333 % done
Best ROUGE score: 0.19374
Current ROUGE score: 0.14014
Best thresholds: [0.5, 0.0]
----------------------------
35.55555555555556 % done
Best ROUGE score: 0.19833
Current ROUGE score: 0.19833
Best thresholds: [0.60000000000000009, 0.0]
----------------------------
37.77777777777778 % done
Best ROUGE score: 0.19833
Current ROUGE score: 0.17179
Best thresholds: [0.60000000000000009, 0.0]
----------------------------
40.0 % done
Best ROUGE score: 0.19833
Current ROUGE score: 0.14465
Best thresholds: [0.60000000000000009, 0.0]
----------------------------
42.22222222222222 % done
Best ROUGE score: 0.19833
Current ROUGE score: 0.14001
Best thresholds: [0.60000000000000009, 0.0]
----------------------------
44.44444444444444 % done
Best ROUGE score: 0.19833
Current ROUGE score: 0.1415
Best thresholds: [0.60000000000000009, 0.0]
----------------------------
46.666666666666664 % done
Best ROUGE score: 0.19833
Current ROUGE score: 0.14001
Best thresholds: [0.60000000000000009, 0.0]
----------------------------
48.888888888888886 % done
Best ROUGE score: 0.20179
Current ROUGE score: 0.20179
Best thresholds: [0.70000000000000007, 0.0]
----------------------------
51.11111111111111 % done
Best ROUGE score: 0.20179
Current ROUGE score: 0.17414
Best thresholds: [0.70000000000000007, 0.0]
----------------------------
53.333333333333336 % done
Best ROUGE score: 0.20179
Current ROUGE score: 0.14517
Best thresholds: [0.70000000000000007, 0.0]
----------------------------
55.55555555555556 % done
Best ROUGE score: 0.20179
Current ROUGE score: 0.1396
Best thresholds: [0.70000000000000007, 0.0]
----------------------------
57.77777777777777 % done
Best ROUGE score: 0.20179
Current ROUGE score: 0.14112
Best thresholds: [0.70000000000000007, 0.0]
----------------------------
60.0 % done
Best ROUGE score: 0.20179
Current ROUGE score: 0.13902
Best thresholds: [0.70000000000000007, 0.0]
----------------------------
62.22222222222222 % done
Best ROUGE score: 0.20179
Current ROUGE score: 0.1388
Best thresholds: [0.70000000000000007, 0.0]
----------------------------
64.44444444444444 % done
Best ROUGE score: 0.203
Current ROUGE score: 0.203
Best thresholds: [0.80000000000000004, 0.0]
----------------------------
66.66666666666666 % done
Best ROUGE score: 0.203
Current ROUGE score: 0.17416
Best thresholds: [0.80000000000000004, 0.0]
----------------------------
68.88888888888889 % done
Best ROUGE score: 0.203
Current ROUGE score: 0.14528
Best thresholds: [0.80000000000000004, 0.0]
----------------------------
71.11111111111111 % done
Best ROUGE score: 0.203
Current ROUGE score: 0.13969
Best thresholds: [0.80000000000000004, 0.0]
----------------------------
73.33333333333333 % done
Best ROUGE score: 0.203
Current ROUGE score: 0.14121
Best thresholds: [0.80000000000000004, 0.0]
----------------------------
75.55555555555556 % done
Best ROUGE score: 0.203
Current ROUGE score: 0.13911
Best thresholds: [0.80000000000000004, 0.0]
----------------------------
77.77777777777779 % done
Best ROUGE score: 0.203
Current ROUGE score: 0.13893
Best thresholds: [0.80000000000000004, 0.0]
----------------------------
80.0 % done
Best ROUGE score: 0.203
Current ROUGE score: 0.13913
Best thresholds: [0.80000000000000004, 0.0]
----------------------------
82.22222222222221 % done
Best ROUGE score: 0.203
Current ROUGE score: 0.20156
Best thresholds: [0.80000000000000004, 0.0]
----------------------------
84.44444444444444 % done
Best ROUGE score: 0.203
Current ROUGE score: 0.17392
Best thresholds: [0.80000000000000004, 0.0]
----------------------------
86.66666666666667 % done
Best ROUGE score: 0.203
Current ROUGE score: 0.14479
Best thresholds: [0.80000000000000004, 0.0]
----------------------------
88.88888888888889 % done
Best ROUGE score: 0.203
Current ROUGE score: 0.13927
Best thresholds: [0.80000000000000004, 0.0]
----------------------------
91.11111111111111 % done
Best ROUGE score: 0.203
Current ROUGE score: 0.14076
Best thresholds: [0.80000000000000004, 0.0]
----------------------------
93.33333333333333 % done
Best ROUGE score: 0.203
Current ROUGE score: 0.13866
Best thresholds: [0.80000000000000004, 0.0]
----------------------------
95.55555555555556 % done
Best ROUGE score: 0.203
Current ROUGE score: 0.13848
Best thresholds: [0.80000000000000004, 0.0]
----------------------------
97.77777777777777 % done
Best ROUGE score: 0.203
Current ROUGE score: 0.13868
Best thresholds: [0.80000000000000004, 0.0]
----------------------------
100.0 % done
Best ROUGE score: 0.203
Current ROUGE score: 0.1386
Best thresholds: [0.80000000000000004, 0.0]
Final thresholds: [0.80000000000000004, 0.0]

--------------------------------------------------------

Experiment 2 - Randomised snippets per question ID

----------------------------
1.0 % done
Best ROUGE score: 0.17674
Current ROUGE score: 0.17674
Best weights: [1.0, 1.0]
----------------------------
2.0 % done
Best ROUGE score: 0.17674
Current ROUGE score: 0.17612
Best weights: [1.0, 1.0]
----------------------------
3.0 % done
Best ROUGE score: 0.17674
Current ROUGE score: 0.17146
Best weights: [1.0, 1.0]
----------------------------
4.0 % done
Best ROUGE score: 0.17674
Current ROUGE score: 0.17045
Best weights: [1.0, 1.0]
----------------------------
5.0 % done
Best ROUGE score: 0.17674
Current ROUGE score: 0.17033
Best weights: [1.0, 1.0]
----------------------------
6.0 % done
Best ROUGE score: 0.17674
Current ROUGE score: 0.17031
Best weights: [1.0, 1.0]
----------------------------
7.000000000000001 % done
Best ROUGE score: 0.17674
Current ROUGE score: 0.16991
Best weights: [1.0, 1.0]
----------------------------
8.0 % done
Best ROUGE score: 0.17674
Current ROUGE score: 0.16991
Best weights: [1.0, 1.0]
----------------------------
9.0 % done
Best ROUGE score: 0.17674
Current ROUGE score: 0.16991
Best weights: [1.0, 1.0]
----------------------------
10.0 % done
Best ROUGE score: 0.17674
Current ROUGE score: 0.16991
Best weights: [1.0, 1.0]
----------------------------
11.0 % done
Best ROUGE score: 0.18584
Current ROUGE score: 0.18584
Best weights: [2.0, 1.0]
----------------------------
12.0 % done
Best ROUGE score: 0.18584
Current ROUGE score: 0.17674
Best weights: [2.0, 1.0]
----------------------------
13.0 % done
Best ROUGE score: 0.18584
Current ROUGE score: 0.17501
Best weights: [2.0, 1.0]
----------------------------
14.000000000000002 % done
Best ROUGE score: 0.18584
Current ROUGE score: 0.17612
Best weights: [2.0, 1.0]
----------------------------
15.0 % done
Best ROUGE score: 0.18584
Current ROUGE score: 0.17128
Best weights: [2.0, 1.0]
----------------------------
16.0 % done
Best ROUGE score: 0.18584
Current ROUGE score: 0.17146
Best weights: [2.0, 1.0]
----------------------------
17.0 % done
Best ROUGE score: 0.18584
Current ROUGE score: 0.17019
Best weights: [2.0, 1.0]
----------------------------
18.0 % done
Best ROUGE score: 0.18584
Current ROUGE score: 0.17045
Best weights: [2.0, 1.0]
----------------------------
19.0 % done
Best ROUGE score: 0.18584
Current ROUGE score: 0.17025
Best weights: [2.0, 1.0]
----------------------------
20.0 % done
Best ROUGE score: 0.18584
Current ROUGE score: 0.17033
Best weights: [2.0, 1.0]
----------------------------
21.0 % done
Best ROUGE score: 0.18584
Current ROUGE score: 0.17594
Best weights: [2.0, 1.0]
----------------------------
22.0 % done
Best ROUGE score: 0.18584
Current ROUGE score: 0.1825
Best weights: [2.0, 1.0]
----------------------------
23.0 % done
Best ROUGE score: 0.18584
Current ROUGE score: 0.17674
Best weights: [2.0, 1.0]
----------------------------
24.0 % done
Best ROUGE score: 0.18584
Current ROUGE score: 0.17549
Best weights: [2.0, 1.0]
----------------------------
25.0 % done
Best ROUGE score: 0.18584
Current ROUGE score: 0.17441
Best weights: [2.0, 1.0]
----------------------------
26.0 % done
Best ROUGE score: 0.18584
Current ROUGE score: 0.17612
Best weights: [2.0, 1.0]
----------------------------
27.0 % done
Best ROUGE score: 0.18584
Current ROUGE score: 0.17103
Best weights: [2.0, 1.0]
----------------------------
28.000000000000004 % done
Best ROUGE score: 0.18584
Current ROUGE score: 0.17141
Best weights: [2.0, 1.0]
----------------------------
28.999999999999996 % done
Best ROUGE score: 0.18584
Current ROUGE score: 0.17146
Best weights: [2.0, 1.0]
----------------------------
30.0 % done
Best ROUGE score: 0.18584
Current ROUGE score: 0.17019
Best weights: [2.0, 1.0]
----------------------------
31.0 % done
Best ROUGE score: 0.18584
Current ROUGE score: 0.17393
Best weights: [2.0, 1.0]
----------------------------
32.0 % done
Best ROUGE score: 0.18584
Current ROUGE score: 0.18584
Best weights: [2.0, 1.0]
----------------------------
33.0 % done
Best ROUGE score: 0.18584
Current ROUGE score: 0.18252
Best weights: [2.0, 1.0]
----------------------------
34.0 % done
Best ROUGE score: 0.18584
Current ROUGE score: 0.17674
Best weights: [2.0, 1.0]
----------------------------
35.0 % done
Best ROUGE score: 0.18584
Current ROUGE score: 0.17545
Best weights: [2.0, 1.0]
----------------------------
36.0 % done
Best ROUGE score: 0.18584
Current ROUGE score: 0.17501
Best weights: [2.0, 1.0]
----------------------------
37.0 % done
Best ROUGE score: 0.18584
Current ROUGE score: 0.17441
Best weights: [2.0, 1.0]
----------------------------
38.0 % done
Best ROUGE score: 0.18584
Current ROUGE score: 0.17612
Best weights: [2.0, 1.0]
----------------------------
39.0 % done
Best ROUGE score: 0.18584
Current ROUGE score: 0.17103
Best weights: [2.0, 1.0]
----------------------------
40.0 % done
Best ROUGE score: 0.18584
Current ROUGE score: 0.17128
Best weights: [2.0, 1.0]
----------------------------
41.0 % done
Best ROUGE score: 0.18584
Current ROUGE score: 0.17431
Best weights: [2.0, 1.0]
----------------------------
42.0 % done
Best ROUGE score: 0.18584
Current ROUGE score: 0.18101
Best weights: [2.0, 1.0]
----------------------------
43.0 % done
Best ROUGE score: 0.18584
Current ROUGE score: 0.18337
Best weights: [2.0, 1.0]
----------------------------
44.0 % done
Best ROUGE score: 0.18584
Current ROUGE score: 0.18246
Best weights: [2.0, 1.0]
----------------------------
45.0 % done
Best ROUGE score: 0.18584
Current ROUGE score: 0.17674
Best weights: [2.0, 1.0]
----------------------------
46.0 % done
Best ROUGE score: 0.18584
Current ROUGE score: 0.17545
Best weights: [2.0, 1.0]
----------------------------
47.0 % done
Best ROUGE score: 0.18584
Current ROUGE score: 0.17507
Best weights: [2.0, 1.0]
----------------------------
48.0 % done
Best ROUGE score: 0.18584
Current ROUGE score: 0.17441
Best weights: [2.0, 1.0]
----------------------------
49.0 % done
Best ROUGE score: 0.18584
Current ROUGE score: 0.17441
Best weights: [2.0, 1.0]
----------------------------
50.0 % done
Best ROUGE score: 0.18584
Current ROUGE score: 0.17612
Best weights: [2.0, 1.0]
----------------------------
51.0 % done
Best ROUGE score: 0.18584
Current ROUGE score: 0.17318
Best weights: [2.0, 1.0]
----------------------------
52.0 % done
Best ROUGE score: 0.18584
Current ROUGE score: 0.17594
Best weights: [2.0, 1.0]
----------------------------
53.0 % done
Best ROUGE score: 0.18584
Current ROUGE score: 0.18584
Best weights: [2.0, 1.0]
----------------------------
54.0 % done
Best ROUGE score: 0.18584
Current ROUGE score: 0.1825
Best weights: [2.0, 1.0]
----------------------------
55.00000000000001 % done
Best ROUGE score: 0.18584
Current ROUGE score: 0.18246
Best weights: [2.0, 1.0]
----------------------------
56.00000000000001 % done
Best ROUGE score: 0.18584
Current ROUGE score: 0.17674
Best weights: [2.0, 1.0]
----------------------------
56.99999999999999 % done
Best ROUGE score: 0.18584
Current ROUGE score: 0.17545
Best weights: [2.0, 1.0]
----------------------------
57.99999999999999 % done
Best ROUGE score: 0.18584
Current ROUGE score: 0.17549
Best weights: [2.0, 1.0]
----------------------------
59.0 % done
Best ROUGE score: 0.18584
Current ROUGE score: 0.17501
Best weights: [2.0, 1.0]
----------------------------
60.0 % done
Best ROUGE score: 0.18584
Current ROUGE score: 0.17441
Best weights: [2.0, 1.0]
----------------------------
61.0 % done
Best ROUGE score: 0.18584
Current ROUGE score: 0.17304
Best weights: [2.0, 1.0]
----------------------------
62.0 % done
Best ROUGE score: 0.18584
Current ROUGE score: 0.17468
Best weights: [2.0, 1.0]
----------------------------
63.0 % done
Best ROUGE score: 0.18584
Current ROUGE score: 0.18099
Best weights: [2.0, 1.0]
----------------------------
64.0 % done
Best ROUGE score: 0.18584
Current ROUGE score: 0.18337
Best weights: [2.0, 1.0]
----------------------------
65.0 % done
Best ROUGE score: 0.18584
Current ROUGE score: 0.18234
Best weights: [2.0, 1.0]
----------------------------
66.0 % done
Best ROUGE score: 0.18584
Current ROUGE score: 0.18246
Best weights: [2.0, 1.0]
----------------------------
67.0 % done
Best ROUGE score: 0.18584
Current ROUGE score: 0.17674
Best weights: [2.0, 1.0]
----------------------------
68.0 % done
Best ROUGE score: 0.18584
Current ROUGE score: 0.17545
Best weights: [2.0, 1.0]
----------------------------
69.0 % done
Best ROUGE score: 0.18584
Current ROUGE score: 0.17545
Best weights: [2.0, 1.0]
----------------------------
70.0 % done
Best ROUGE score: 0.18584
Current ROUGE score: 0.17507
Best weights: [2.0, 1.0]
----------------------------
71.0 % done
Best ROUGE score: 0.18584
Current ROUGE score: 0.1732
Best weights: [2.0, 1.0]
----------------------------
72.0 % done
Best ROUGE score: 0.18584
Current ROUGE score: 0.17393
Best weights: [2.0, 1.0]
----------------------------
73.0 % done
Best ROUGE score: 0.18584
Current ROUGE score: 0.18038
Best weights: [2.0, 1.0]
----------------------------
74.0 % done
Best ROUGE score: 0.18584
Current ROUGE score: 0.18584
Best weights: [2.0, 1.0]
----------------------------
75.0 % done
Best ROUGE score: 0.18584
Current ROUGE score: 0.18202
Best weights: [2.0, 1.0]
----------------------------
76.0 % done
Best ROUGE score: 0.18584
Current ROUGE score: 0.18252
Best weights: [2.0, 1.0]
----------------------------
77.0 % done
Best ROUGE score: 0.18584
Current ROUGE score: 0.18246
Best weights: [2.0, 1.0]
----------------------------
78.0 % done
Best ROUGE score: 0.18584
Current ROUGE score: 0.17674
Best weights: [2.0, 1.0]
----------------------------
79.0 % done
Best ROUGE score: 0.18584
Current ROUGE score: 0.17545
Best weights: [2.0, 1.0]
----------------------------
80.0 % done
Best ROUGE score: 0.18584
Current ROUGE score: 0.17545
Best weights: [2.0, 1.0]
----------------------------
81.0 % done
Best ROUGE score: 0.18584
Current ROUGE score: 0.1732
Best weights: [2.0, 1.0]
----------------------------
82.0 % done
Best ROUGE score: 0.18584
Current ROUGE score: 0.17426
Best weights: [2.0, 1.0]
----------------------------
83.0 % done
Best ROUGE score: 0.18584
Current ROUGE score: 0.17594
Best weights: [2.0, 1.0]
----------------------------
84.0 % done
Best ROUGE score: 0.18584
Current ROUGE score: 0.18099
Best weights: [2.0, 1.0]
----------------------------
85.0 % done
Best ROUGE score: 0.18584
Current ROUGE score: 0.18337
Best weights: [2.0, 1.0]
----------------------------
86.0 % done
Best ROUGE score: 0.18584
Current ROUGE score: 0.1825
Best weights: [2.0, 1.0]
----------------------------
87.0 % done
Best ROUGE score: 0.18584
Current ROUGE score: 0.18246
Best weights: [2.0, 1.0]
----------------------------
88.0 % done
Best ROUGE score: 0.18584
Current ROUGE score: 0.18246
Best weights: [2.0, 1.0]
----------------------------
89.0 % done
Best ROUGE score: 0.18584
Current ROUGE score: 0.17674
Best weights: [2.0, 1.0]
----------------------------
90.0 % done
Best ROUGE score: 0.18584
Current ROUGE score: 0.17545
Best weights: [2.0, 1.0]
----------------------------
91.0 % done
Best ROUGE score: 0.18584
Current ROUGE score: 0.1732
Best weights: [2.0, 1.0]
----------------------------
92.0 % done
Best ROUGE score: 0.18584
Current ROUGE score: 0.17431
Best weights: [2.0, 1.0]
----------------------------
93.0 % done
Best ROUGE score: 0.18584
Current ROUGE score: 0.17407
Best weights: [2.0, 1.0]
----------------------------
94.0 % done
Best ROUGE score: 0.18584
Current ROUGE score: 0.18101
Best weights: [2.0, 1.0]
----------------------------
95.0 % done
Best ROUGE score: 0.18584
Current ROUGE score: 0.18584
Best weights: [2.0, 1.0]
----------------------------
96.0 % done
Best ROUGE score: 0.18584
Current ROUGE score: 0.18337
Best weights: [2.0, 1.0]
----------------------------
97.0 % done
Best ROUGE score: 0.18584
Current ROUGE score: 0.18234
Best weights: [2.0, 1.0]
----------------------------
98.0 % done
Best ROUGE score: 0.18584
Current ROUGE score: 0.18246
Best weights: [2.0, 1.0]
----------------------------
99.0 % done
Best ROUGE score: 0.18584
Current ROUGE score: 0.18246
Best weights: [2.0, 1.0]
----------------------------
100.0 % done
Best ROUGE score: 0.18584
Current ROUGE score: 0.17674
Best weights: [2.0, 1.0]
Final weights: [2.0, 1.0]
----------------------------
2.2222222222222223 % done
Best ROUGE score: 0.16157
Current ROUGE score: 0.16157
Best thresholds: [0.10000000000000001, 0.0]
----------------------------
4.444444444444445 % done
Best ROUGE score: 0.1657
Current ROUGE score: 0.1657
Best thresholds: [0.20000000000000001, 0.0]
----------------------------
6.666666666666667 % done
Best ROUGE score: 0.1688
Current ROUGE score: 0.1688
Best thresholds: [0.20000000000000001, 0.10000000000000001]
----------------------------
8.88888888888889 % done
Best ROUGE score: 0.1688
Current ROUGE score: 0.16601
Best thresholds: [0.20000000000000001, 0.10000000000000001]
----------------------------
11.11111111111111 % done
Best ROUGE score: 0.18584
Current ROUGE score: 0.18584
Best thresholds: [0.30000000000000004, 0.10000000000000001]
----------------------------
13.333333333333334 % done
Best ROUGE score: 0.18584
Current ROUGE score: 0.14901
Best thresholds: [0.30000000000000004, 0.10000000000000001]
----------------------------
15.555555555555555 % done
Best ROUGE score: 0.18584
Current ROUGE score: 0.1577
Best thresholds: [0.30000000000000004, 0.10000000000000001]
----------------------------
17.77777777777778 % done
Best ROUGE score: 0.18584
Current ROUGE score: 0.16601
Best thresholds: [0.30000000000000004, 0.10000000000000001]
----------------------------
20.0 % done
Best ROUGE score: 0.18584
Current ROUGE score: 0.14127
Best thresholds: [0.30000000000000004, 0.10000000000000001]
----------------------------
22.22222222222222 % done
Best ROUGE score: 0.18584
Current ROUGE score: 0.13674
Best thresholds: [0.30000000000000004, 0.10000000000000001]
----------------------------
24.444444444444443 % done
Best ROUGE score: 0.18584
Current ROUGE score: 0.16478
Best thresholds: [0.30000000000000004, 0.10000000000000001]
----------------------------
26.666666666666668 % done
Best ROUGE score: 0.18584
Current ROUGE score: 0.16881
Best thresholds: [0.30000000000000004, 0.10000000000000001]
----------------------------
28.888888888888886 % done
Best ROUGE score: 0.18584
Current ROUGE score: 0.13999
Best thresholds: [0.30000000000000004, 0.10000000000000001]
----------------------------
31.11111111111111 % done
Best ROUGE score: 0.18584
Current ROUGE score: 0.13593
Best thresholds: [0.30000000000000004, 0.10000000000000001]
----------------------------
33.33333333333333 % done
Best ROUGE score: 0.18584
Current ROUGE score: 0.13753
Best thresholds: [0.30000000000000004, 0.10000000000000001]
----------------------------
35.55555555555556 % done
Best ROUGE score: 0.18584
Current ROUGE score: 0.16711
Best thresholds: [0.30000000000000004, 0.10000000000000001]
----------------------------
37.77777777777778 % done
Best ROUGE score: 0.18584
Current ROUGE score: 0.16787
Best thresholds: [0.30000000000000004, 0.10000000000000001]
----------------------------
40.0 % done
Best ROUGE score: 0.18584
Current ROUGE score: 0.14223
Best thresholds: [0.30000000000000004, 0.10000000000000001]
----------------------------
42.22222222222222 % done
Best ROUGE score: 0.18584
Current ROUGE score: 0.13607
Best thresholds: [0.30000000000000004, 0.10000000000000001]
----------------------------
44.44444444444444 % done
Best ROUGE score: 0.18584
Current ROUGE score: 0.13776
Best thresholds: [0.30000000000000004, 0.10000000000000001]
----------------------------
46.666666666666664 % done
Best ROUGE score: 0.18584
Current ROUGE score: 0.13835
Best thresholds: [0.30000000000000004, 0.10000000000000001]
----------------------------
48.888888888888886 % done
Best ROUGE score: 0.18584
Current ROUGE score: 0.17042
Best thresholds: [0.30000000000000004, 0.10000000000000001]
----------------------------
51.11111111111111 % done
Best ROUGE score: 0.18584
Current ROUGE score: 0.16908
Best thresholds: [0.30000000000000004, 0.10000000000000001]
----------------------------
53.333333333333336 % done
Best ROUGE score: 0.18584
Current ROUGE score: 0.14258
Best thresholds: [0.30000000000000004, 0.10000000000000001]
----------------------------
55.55555555555556 % done
Best ROUGE score: 0.18584
Current ROUGE score: 0.13638
Best thresholds: [0.30000000000000004, 0.10000000000000001]
----------------------------
57.77777777777777 % done
Best ROUGE score: 0.18584
Current ROUGE score: 0.13737
Best thresholds: [0.30000000000000004, 0.10000000000000001]
----------------------------
60.0 % done
Best ROUGE score: 0.18584
Current ROUGE score: 0.13791
Best thresholds: [0.30000000000000004, 0.10000000000000001]
----------------------------
62.22222222222222 % done
Best ROUGE score: 0.18584
Current ROUGE score: 0.13598
Best thresholds: [0.30000000000000004, 0.10000000000000001]
----------------------------
64.44444444444444 % done
Best ROUGE score: 0.18584
Current ROUGE score: 0.17068
Best thresholds: [0.30000000000000004, 0.10000000000000001]
----------------------------
66.66666666666666 % done
Best ROUGE score: 0.18584
Current ROUGE score: 0.16866
Best thresholds: [0.30000000000000004, 0.10000000000000001]
----------------------------
68.88888888888889 % done
Best ROUGE score: 0.18584
Current ROUGE score: 0.14267
Best thresholds: [0.30000000000000004, 0.10000000000000001]
----------------------------
71.11111111111111 % done
Best ROUGE score: 0.18584
Current ROUGE score: 0.13638
Best thresholds: [0.30000000000000004, 0.10000000000000001]
----------------------------
73.33333333333333 % done
Best ROUGE score: 0.18584
Current ROUGE score: 0.13737
Best thresholds: [0.30000000000000004, 0.10000000000000001]
----------------------------
75.55555555555556 % done
Best ROUGE score: 0.18584
Current ROUGE score: 0.13785
Best thresholds: [0.30000000000000004, 0.10000000000000001]
----------------------------
77.77777777777779 % done
Best ROUGE score: 0.18584
Current ROUGE score: 0.13598
Best thresholds: [0.30000000000000004, 0.10000000000000001]
----------------------------
80.0 % done
Best ROUGE score: 0.18584
Current ROUGE score: 0.1362
Best thresholds: [0.30000000000000004, 0.10000000000000001]
----------------------------
82.22222222222221 % done
Best ROUGE score: 0.18584
Current ROUGE score: 0.17044
Best thresholds: [0.30000000000000004, 0.10000000000000001]
----------------------------
84.44444444444444 % done
Best ROUGE score: 0.18584
Current ROUGE score: 0.16864
Best thresholds: [0.30000000000000004, 0.10000000000000001]
----------------------------
86.66666666666667 % done
Best ROUGE score: 0.18584
Current ROUGE score: 0.14267
Best thresholds: [0.30000000000000004, 0.10000000000000001]
----------------------------
88.88888888888889 % done
Best ROUGE score: 0.18584
Current ROUGE score: 0.13638
Best thresholds: [0.30000000000000004, 0.10000000000000001]
----------------------------
91.11111111111111 % done
Best ROUGE score: 0.18584
Current ROUGE score: 0.13695
Best thresholds: [0.30000000000000004, 0.10000000000000001]
----------------------------
93.33333333333333 % done
Best ROUGE score: 0.18584
Current ROUGE score: 0.13744
Best thresholds: [0.30000000000000004, 0.10000000000000001]
----------------------------
95.55555555555556 % done
Best ROUGE score: 0.18584
Current ROUGE score: 0.13556
Best thresholds: [0.30000000000000004, 0.10000000000000001]
----------------------------
97.77777777777777 % done
Best ROUGE score: 0.18584
Current ROUGE score: 0.13579
Best thresholds: [0.30000000000000004, 0.10000000000000001]
----------------------------
100.0 % done
Best ROUGE score: 0.18584
Current ROUGE score: 0.13571
Best thresholds: [0.30000000000000004, 0.10000000000000001]
Final thresholds: [0.30000000000000004, 0.10000000000000001]

--------------------------------------------------------

Experiment 3 - Randomised snippets per question ID & weights of [1, 1]

----------------------------
2.2222222222222223 % done
Best ROUGE score: 0.16157
Current ROUGE score: 0.16157
Best thresholds: [0.10000000000000001, 0.0]
----------------------------
4.444444444444445 % done
Best ROUGE score: 0.1657
Current ROUGE score: 0.1657
Best thresholds: [0.20000000000000001, 0.0]
----------------------------
6.666666666666667 % done
Best ROUGE score: 0.16717
Current ROUGE score: 0.16717
Best thresholds: [0.20000000000000001, 0.10000000000000001]
----------------------------
8.88888888888889 % done
Best ROUGE score: 0.16717
Current ROUGE score: 0.16601
Best thresholds: [0.20000000000000001, 0.10000000000000001]
----------------------------
11.11111111111111 % done
Best ROUGE score: 0.17674
Current ROUGE score: 0.17674
Best thresholds: [0.30000000000000004, 0.10000000000000001]
----------------------------
13.333333333333334 % done
Best ROUGE score: 0.17674
Current ROUGE score: 0.14478
Best thresholds: [0.30000000000000004, 0.10000000000000001]
----------------------------
15.555555555555555 % done
Best ROUGE score: 0.17674
Current ROUGE score: 0.1577
Best thresholds: [0.30000000000000004, 0.10000000000000001]
----------------------------
17.77777777777778 % done
Best ROUGE score: 0.17674
Current ROUGE score: 0.16561
Best thresholds: [0.30000000000000004, 0.10000000000000001]
----------------------------
20.0 % done
Best ROUGE score: 0.17674
Current ROUGE score: 0.14119
Best thresholds: [0.30000000000000004, 0.10000000000000001]
----------------------------
22.22222222222222 % done
Best ROUGE score: 0.17674
Current ROUGE score: 0.13609
Best thresholds: [0.30000000000000004, 0.10000000000000001]
----------------------------
24.444444444444443 % done
Best ROUGE score: 0.17674
Current ROUGE score: 0.16478
Best thresholds: [0.30000000000000004, 0.10000000000000001]
----------------------------
26.666666666666668 % done
Best ROUGE score: 0.17674
Current ROUGE score: 0.16503
Best thresholds: [0.30000000000000004, 0.10000000000000001]
----------------------------
28.888888888888886 % done
Best ROUGE score: 0.17674
Current ROUGE score: 0.14078
Best thresholds: [0.30000000000000004, 0.10000000000000001]
----------------------------
31.11111111111111 % done
Best ROUGE score: 0.17674
Current ROUGE score: 0.13583
Best thresholds: [0.30000000000000004, 0.10000000000000001]
----------------------------
33.33333333333333 % done
Best ROUGE score: 0.17674
Current ROUGE score: 0.13714
Best thresholds: [0.30000000000000004, 0.10000000000000001]
----------------------------
35.55555555555556 % done
Best ROUGE score: 0.17674
Current ROUGE score: 0.16711
Best thresholds: [0.30000000000000004, 0.10000000000000001]
----------------------------
37.77777777777778 % done
Best ROUGE score: 0.17674
Current ROUGE score: 0.16595
Best thresholds: [0.30000000000000004, 0.10000000000000001]
----------------------------
40.0 % done
Best ROUGE score: 0.17674
Current ROUGE score: 0.14299
Best thresholds: [0.30000000000000004, 0.10000000000000001]
----------------------------
42.22222222222222 % done
Best ROUGE score: 0.17674
Current ROUGE score: 0.13634
Best thresholds: [0.30000000000000004, 0.10000000000000001]
----------------------------
44.44444444444444 % done
Best ROUGE score: 0.17674
Current ROUGE score: 0.13775
Best thresholds: [0.30000000000000004, 0.10000000000000001]
----------------------------
46.666666666666664 % done
Best ROUGE score: 0.17674
Current ROUGE score: 0.13829
Best thresholds: [0.30000000000000004, 0.10000000000000001]
----------------------------
48.888888888888886 % done
Best ROUGE score: 0.17674
Current ROUGE score: 0.17042
Best thresholds: [0.30000000000000004, 0.10000000000000001]
----------------------------
51.11111111111111 % done
Best ROUGE score: 0.17674
Current ROUGE score: 0.16712
Best thresholds: [0.30000000000000004, 0.10000000000000001]
----------------------------
53.333333333333336 % done
Best ROUGE score: 0.17674
Current ROUGE score: 0.14341
Best thresholds: [0.30000000000000004, 0.10000000000000001]
----------------------------
55.55555555555556 % done
Best ROUGE score: 0.17674
Current ROUGE score: 0.13602
Best thresholds: [0.30000000000000004, 0.10000000000000001]
----------------------------
57.77777777777777 % done
Best ROUGE score: 0.17674
Current ROUGE score: 0.13757
Best thresholds: [0.30000000000000004, 0.10000000000000001]
----------------------------
60.0 % done
Best ROUGE score: 0.17674
Current ROUGE score: 0.13813
Best thresholds: [0.30000000000000004, 0.10000000000000001]
----------------------------
62.22222222222222 % done
Best ROUGE score: 0.17674
Current ROUGE score: 0.13552
Best thresholds: [0.30000000000000004, 0.10000000000000001]
----------------------------
64.44444444444444 % done
Best ROUGE score: 0.17674
Current ROUGE score: 0.17068
Best thresholds: [0.30000000000000004, 0.10000000000000001]
----------------------------
66.66666666666666 % done
Best ROUGE score: 0.17674
Current ROUGE score: 0.16784
Best thresholds: [0.30000000000000004, 0.10000000000000001]
----------------------------
68.88888888888889 % done
Best ROUGE score: 0.17674
Current ROUGE score: 0.14341
Best thresholds: [0.30000000000000004, 0.10000000000000001]
----------------------------
71.11111111111111 % done
Best ROUGE score: 0.17674
Current ROUGE score: 0.13606
Best thresholds: [0.30000000000000004, 0.10000000000000001]
----------------------------
73.33333333333333 % done
Best ROUGE score: 0.17674
Current ROUGE score: 0.13762
Best thresholds: [0.30000000000000004, 0.10000000000000001]
----------------------------
75.55555555555556 % done
Best ROUGE score: 0.17674
Current ROUGE score: 0.13813
Best thresholds: [0.30000000000000004, 0.10000000000000001]
----------------------------
77.77777777777779 % done
Best ROUGE score: 0.17674
Current ROUGE score: 0.13552
Best thresholds: [0.30000000000000004, 0.10000000000000001]
----------------------------
80.0 % done
Best ROUGE score: 0.17674
Current ROUGE score: 0.13579
Best thresholds: [0.30000000000000004, 0.10000000000000001]
----------------------------
82.22222222222221 % done
Best ROUGE score: 0.17674
Current ROUGE score: 0.17044
Best thresholds: [0.30000000000000004, 0.10000000000000001]
----------------------------
84.44444444444444 % done
Best ROUGE score: 0.17674
Current ROUGE score: 0.16783
Best thresholds: [0.30000000000000004, 0.10000000000000001]
----------------------------
86.66666666666667 % done
Best ROUGE score: 0.17674
Current ROUGE score: 0.14341
Best thresholds: [0.30000000000000004, 0.10000000000000001]
----------------------------
88.88888888888889 % done
Best ROUGE score: 0.17674
Current ROUGE score: 0.13606
Best thresholds: [0.30000000000000004, 0.10000000000000001]
----------------------------
91.11111111111111 % done
Best ROUGE score: 0.17674
Current ROUGE score: 0.13762
Best thresholds: [0.30000000000000004, 0.10000000000000001]
----------------------------
93.33333333333333 % done
Best ROUGE score: 0.17674
Current ROUGE score: 0.13813
Best thresholds: [0.30000000000000004, 0.10000000000000001]
----------------------------
95.55555555555556 % done
Best ROUGE score: 0.17674
Current ROUGE score: 0.13552
Best thresholds: [0.30000000000000004, 0.10000000000000001]
----------------------------
97.77777777777777 % done
Best ROUGE score: 0.17674
Current ROUGE score: 0.13579
Best thresholds: [0.30000000000000004, 0.10000000000000001]
----------------------------
100.0 % done
Best ROUGE score: 0.17674
Current ROUGE score: 0.13571
Best thresholds: [0.30000000000000004, 0.10000000000000001]
Final thresholds: [0.30000000000000004, 0.10000000000000001]

--------------------------------------------------------

Experiment 4

----------------------------
2.22% done
Best ROUGE score: 0.1703
Current ROUGE score: 0.1703
Best thresholds: [0.10000000000000001, 0.0]
Current thresholds: [0.1, 0.0]
----------------------------
4.44% done
Best ROUGE score: 0.17458
Current ROUGE score: 0.17458
Best thresholds: [0.20000000000000001, 0.0]
Current thresholds: [0.2, 0.0]
----------------------------
6.67% done
Best ROUGE score: 0.17458
Current ROUGE score: 0.16799
Best thresholds: [0.20000000000000001, 0.0]
Current thresholds: [0.2, 0.1]
----------------------------
8.89% done
Best ROUGE score: 0.17884
Current ROUGE score: 0.17884
Best thresholds: [0.30000000000000004, 0.0]
Current thresholds: [0.30000000000000004, 0.0]
----------------------------
11.11% done
Best ROUGE score: 0.17884
Current ROUGE score: 0.16962
Best thresholds: [0.30000000000000004, 0.0]
Current thresholds: [0.30000000000000004, 0.1]
----------------------------
13.33% done
Best ROUGE score: 0.17884
Current ROUGE score: 0.14115
Best thresholds: [0.30000000000000004, 0.0]
Current thresholds: [0.30000000000000004, 0.2]
----------------------------
15.56% done
Best ROUGE score: 0.17884
Current ROUGE score: 0.1648
Best thresholds: [0.30000000000000004, 0.0]
Current thresholds: [0.4, 0.0]
----------------------------
17.78% done
Best ROUGE score: 0.17884
Current ROUGE score: 0.16685
Best thresholds: [0.30000000000000004, 0.0]
Current thresholds: [0.4, 0.1]
----------------------------
20.00% done
Best ROUGE score: 0.17884
Current ROUGE score: 0.13789
Best thresholds: [0.30000000000000004, 0.0]
Current thresholds: [0.4, 0.2]
----------------------------
22.22% done
Best ROUGE score: 0.17884
Current ROUGE score: 0.13621
Best thresholds: [0.30000000000000004, 0.0]
Current thresholds: [0.4, 0.30000000000000004]
----------------------------
24.44% done
Best ROUGE score: 0.17884
Current ROUGE score: 0.15594
Best thresholds: [0.30000000000000004, 0.0]
Current thresholds: [0.5, 0.0]
----------------------------
26.67% done
Best ROUGE score: 0.17884
Current ROUGE score: 0.16699
Best thresholds: [0.30000000000000004, 0.0]
Current thresholds: [0.5, 0.1]
----------------------------
28.89% done
Best ROUGE score: 0.17884
Current ROUGE score: 0.1395
Best thresholds: [0.30000000000000004, 0.0]
Current thresholds: [0.5, 0.2]
----------------------------
31.11% done
Best ROUGE score: 0.17884
Current ROUGE score: 0.1349
Best thresholds: [0.30000000000000004, 0.0]
Current thresholds: [0.5, 0.30000000000000004]
----------------------------
33.33% done
Best ROUGE score: 0.17884
Current ROUGE score: 0.1363
Best thresholds: [0.30000000000000004, 0.0]
Current thresholds: [0.5, 0.4]
----------------------------
35.56% done
Best ROUGE score: 0.17884
Current ROUGE score: 0.15545
Best thresholds: [0.30000000000000004, 0.0]
Current thresholds: [0.6000000000000001, 0.0]
----------------------------
37.78% done
Best ROUGE score: 0.17884
Current ROUGE score: 0.16661
Best thresholds: [0.30000000000000004, 0.0]
Current thresholds: [0.6000000000000001, 0.1]
----------------------------
40.00% done
Best ROUGE score: 0.17884
Current ROUGE score: 0.13957
Best thresholds: [0.30000000000000004, 0.0]
Current thresholds: [0.6000000000000001, 0.2]
----------------------------
42.22% done
Best ROUGE score: 0.17884
Current ROUGE score: 0.13535
Best thresholds: [0.30000000000000004, 0.0]
Current thresholds: [0.6000000000000001, 0.30000000000000004]
----------------------------
44.44% done
Best ROUGE score: 0.17884
Current ROUGE score: 0.1366
Best thresholds: [0.30000000000000004, 0.0]
Current thresholds: [0.6000000000000001, 0.4]
----------------------------
46.67% done
Best ROUGE score: 0.17884
Current ROUGE score: 0.13799
Best thresholds: [0.30000000000000004, 0.0]
Current thresholds: [0.6000000000000001, 0.5]
----------------------------
48.89% done
Best ROUGE score: 0.17884
Current ROUGE score: 0.15752
Best thresholds: [0.30000000000000004, 0.0]
Current thresholds: [0.7000000000000001, 0.0]
----------------------------
51.11% done
Best ROUGE score: 0.17884
Current ROUGE score: 0.16606
Best thresholds: [0.30000000000000004, 0.0]
Current thresholds: [0.7000000000000001, 0.1]
----------------------------
53.33% done
Best ROUGE score: 0.17884
Current ROUGE score: 0.13927
Best thresholds: [0.30000000000000004, 0.0]
Current thresholds: [0.7000000000000001, 0.2]
----------------------------
55.56% done
Best ROUGE score: 0.17884
Current ROUGE score: 0.13463
Best thresholds: [0.30000000000000004, 0.0]
Current thresholds: [0.7000000000000001, 0.30000000000000004]
----------------------------
57.78% done
Best ROUGE score: 0.17884
Current ROUGE score: 0.13641
Best thresholds: [0.30000000000000004, 0.0]
Current thresholds: [0.7000000000000001, 0.4]
----------------------------
60.00% done
Best ROUGE score: 0.17884
Current ROUGE score: 0.13779
Best thresholds: [0.30000000000000004, 0.0]
Current thresholds: [0.7000000000000001, 0.5]
----------------------------
62.22% done
Best ROUGE score: 0.17884
Current ROUGE score: 0.13832
Best thresholds: [0.30000000000000004, 0.0]
Current thresholds: [0.7000000000000001, 0.6000000000000001]
----------------------------
64.44% done
Best ROUGE score: 0.17884
Current ROUGE score: 0.15813
Best thresholds: [0.30000000000000004, 0.0]
Current thresholds: [0.8, 0.0]
----------------------------
66.67% done
Best ROUGE score: 0.17884
Current ROUGE score: 0.16462
Best thresholds: [0.30000000000000004, 0.0]
Current thresholds: [0.8, 0.1]
----------------------------
68.89% done
Best ROUGE score: 0.17884
Current ROUGE score: 0.1392
Best thresholds: [0.30000000000000004, 0.0]
Current thresholds: [0.8, 0.2]
----------------------------
71.11% done
Best ROUGE score: 0.17884
Current ROUGE score: 0.13465
Best thresholds: [0.30000000000000004, 0.0]
Current thresholds: [0.8, 0.30000000000000004]
----------------------------
73.33% done
Best ROUGE score: 0.17884
Current ROUGE score: 0.13643
Best thresholds: [0.30000000000000004, 0.0]
Current thresholds: [0.8, 0.4]
----------------------------
75.56% done
Best ROUGE score: 0.17884
Current ROUGE score: 0.13783
Best thresholds: [0.30000000000000004, 0.0]
Current thresholds: [0.8, 0.5]
----------------------------
77.78% done
Best ROUGE score: 0.17884
Current ROUGE score: 0.13838
Best thresholds: [0.30000000000000004, 0.0]
Current thresholds: [0.8, 0.6000000000000001]
----------------------------
80.00% done
Best ROUGE score: 0.17884
Current ROUGE score: 0.13787
Best thresholds: [0.30000000000000004, 0.0]
Current thresholds: [0.8, 0.7000000000000001]
----------------------------
82.22% done
Best ROUGE score: 0.17884
Current ROUGE score: 0.15568
Best thresholds: [0.30000000000000004, 0.0]
Current thresholds: [0.9, 0.0]
----------------------------
84.44% done
Best ROUGE score: 0.17884
Current ROUGE score: 0.16402
Best thresholds: [0.30000000000000004, 0.0]
Current thresholds: [0.9, 0.1]
----------------------------
86.67% done
Best ROUGE score: 0.17884
Current ROUGE score: 0.1392
Best thresholds: [0.30000000000000004, 0.0]
Current thresholds: [0.9, 0.2]
----------------------------
88.89% done
Best ROUGE score: 0.17884
Current ROUGE score: 0.13465
Best thresholds: [0.30000000000000004, 0.0]
Current thresholds: [0.9, 0.30000000000000004]
----------------------------
91.11% done
Best ROUGE score: 0.17884
Current ROUGE score: 0.13643
Best thresholds: [0.30000000000000004, 0.0]
Current thresholds: [0.9, 0.4]
----------------------------
93.33% done
Best ROUGE score: 0.17884
Current ROUGE score: 0.13783
Best thresholds: [0.30000000000000004, 0.0]
Current thresholds: [0.9, 0.5]
----------------------------
95.56% done
Best ROUGE score: 0.17884
Current ROUGE score: 0.13838
Best thresholds: [0.30000000000000004, 0.0]
Current thresholds: [0.9, 0.6000000000000001]
----------------------------
97.78% done
Best ROUGE score: 0.17884
Current ROUGE score: 0.13787
Best thresholds: [0.30000000000000004, 0.0]
Current thresholds: [0.9, 0.7000000000000001]
----------------------------
100.00% done
Best ROUGE score: 0.17884
Current ROUGE score: 0.13728
Best thresholds: [0.30000000000000004, 0.0]
Current thresholds: [0.9, 0.8]
----------------------------
Final thresholds: [0.30000000000000004, 0.0]
----------------------------
----------------------------
----------------------------
----------------------------
1.0 % done
Best ROUGE score: 0.17884
Current ROUGE score: 0.17884
Best weights: [1.0, 1.0]
----------------------------
2.0 % done
Best ROUGE score: 0.17884
Current ROUGE score: 0.17884
Best weights: [1.0, 1.0]
----------------------------
3.0 % done
Best ROUGE score: 0.17884
Current ROUGE score: 0.17884
Best weights: [1.0, 1.0]
----------------------------
4.0 % done
Best ROUGE score: 0.17884
Current ROUGE score: 0.17884
Best weights: [1.0, 1.0]
----------------------------
5.0 % done
Best ROUGE score: 0.17884
Current ROUGE score: 0.17884
Best weights: [1.0, 1.0]
----------------------------
6.0 % done
Best ROUGE score: 0.17884
Current ROUGE score: 0.17884
Best weights: [1.0, 1.0]
----------------------------
7.000000000000001 % done
Best ROUGE score: 0.17884
Current ROUGE score: 0.17884
Best weights: [1.0, 1.0]
----------------------------
8.0 % done
Best ROUGE score: 0.17884
Current ROUGE score: 0.17884
Best weights: [1.0, 1.0]
----------------------------
9.0 % done
Best ROUGE score: 0.17884
Current ROUGE score: 0.17884
Best weights: [1.0, 1.0]
----------------------------
10.0 % done
Best ROUGE score: 0.17884
Current ROUGE score: 0.17884
Best weights: [1.0, 1.0]
----------------------------
11.0 % done
Best ROUGE score: 0.17884
Current ROUGE score: 0.17884
Best weights: [1.0, 1.0]
----------------------------
12.0 % done
Best ROUGE score: 0.17884
Current ROUGE score: 0.17884
Best weights: [1.0, 1.0]
----------------------------
13.0 % done
Best ROUGE score: 0.17884
Current ROUGE score: 0.17884
Best weights: [1.0, 1.0]
----------------------------
14.000000000000002 % done
Best ROUGE score: 0.17884
Current ROUGE score: 0.17884
Best weights: [1.0, 1.0]
----------------------------
15.0 % done
Best ROUGE score: 0.17884
Current ROUGE score: 0.17884
Best weights: [1.0, 1.0]
----------------------------
16.0 % done
Best ROUGE score: 0.17884
Current ROUGE score: 0.17884
Best weights: [1.0, 1.0]
----------------------------
17.0 % done
Best ROUGE score: 0.17884
Current ROUGE score: 0.17884
Best weights: [1.0, 1.0]
----------------------------
18.0 % done
Best ROUGE score: 0.17884
Current ROUGE score: 0.17884
Best weights: [1.0, 1.0]
----------------------------
19.0 % done
Best ROUGE score: 0.17884
Current ROUGE score: 0.17884
Best weights: [1.0, 1.0]
----------------------------
20.0 % done
Best ROUGE score: 0.17884
Current ROUGE score: 0.17884
Best weights: [1.0, 1.0]
----------------------------
21.0 % done
Best ROUGE score: 0.17884
Current ROUGE score: 0.17884
Best weights: [1.0, 1.0]
----------------------------
22.0 % done
Best ROUGE score: 0.17884
Current ROUGE score: 0.17884
Best weights: [1.0, 1.0]
----------------------------
23.0 % done
Best ROUGE score: 0.17884
Current ROUGE score: 0.17884
Best weights: [1.0, 1.0]
----------------------------
24.0 % done
Best ROUGE score: 0.17884
Current ROUGE score: 0.17884
Best weights: [1.0, 1.0]
----------------------------
25.0 % done
Best ROUGE score: 0.17884
Current ROUGE score: 0.17884
Best weights: [1.0, 1.0]
----------------------------
26.0 % done
Best ROUGE score: 0.17884
Current ROUGE score: 0.17884
Best weights: [1.0, 1.0]
----------------------------
27.0 % done
Best ROUGE score: 0.17884
Current ROUGE score: 0.17884
Best weights: [1.0, 1.0]
----------------------------
28.000000000000004 % done
Best ROUGE score: 0.17884
Current ROUGE score: 0.17884
Best weights: [1.0, 1.0]
----------------------------
28.999999999999996 % done
Best ROUGE score: 0.17884
Current ROUGE score: 0.17884
Best weights: [1.0, 1.0]
----------------------------
30.0 % done
Best ROUGE score: 0.17884
Current ROUGE score: 0.17884
Best weights: [1.0, 1.0]
----------------------------
31.0 % done
Best ROUGE score: 0.17884
Current ROUGE score: 0.17884
Best weights: [1.0, 1.0]
----------------------------
32.0 % done
Best ROUGE score: 0.17884
Current ROUGE score: 0.17884
Best weights: [1.0, 1.0]
----------------------------
33.0 % done
Best ROUGE score: 0.17884
Current ROUGE score: 0.17884
Best weights: [1.0, 1.0]
----------------------------
34.0 % done
Best ROUGE score: 0.17884
Current ROUGE score: 0.17884
Best weights: [1.0, 1.0]
----------------------------
35.0 % done
Best ROUGE score: 0.17884
Current ROUGE score: 0.17884
Best weights: [1.0, 1.0]
----------------------------
36.0 % done
Best ROUGE score: 0.17884
Current ROUGE score: 0.17884
Best weights: [1.0, 1.0]
----------------------------
37.0 % done
Best ROUGE score: 0.17884
Current ROUGE score: 0.17884
Best weights: [1.0, 1.0]
----------------------------
38.0 % done
Best ROUGE score: 0.17884
Current ROUGE score: 0.17884
Best weights: [1.0, 1.0]
----------------------------
39.0 % done
Best ROUGE score: 0.17884
Current ROUGE score: 0.17884
Best weights: [1.0, 1.0]
----------------------------
40.0 % done
Best ROUGE score: 0.17884
Current ROUGE score: 0.17884
Best weights: [1.0, 1.0]
----------------------------
41.0 % done
Best ROUGE score: 0.17884
Current ROUGE score: 0.17884
Best weights: [1.0, 1.0]
----------------------------
42.0 % done
Best ROUGE score: 0.17884
Current ROUGE score: 0.17884
Best weights: [1.0, 1.0]
----------------------------
43.0 % done
Best ROUGE score: 0.17884
Current ROUGE score: 0.17884
Best weights: [1.0, 1.0]
----------------------------
44.0 % done
Best ROUGE score: 0.17884
Current ROUGE score: 0.17884
Best weights: [1.0, 1.0]
----------------------------
45.0 % done
Best ROUGE score: 0.17884
Current ROUGE score: 0.17884
Best weights: [1.0, 1.0]
----------------------------
46.0 % done
Best ROUGE score: 0.17884
Current ROUGE score: 0.17884
Best weights: [1.0, 1.0]
----------------------------
47.0 % done
Best ROUGE score: 0.17884
Current ROUGE score: 0.17884
Best weights: [1.0, 1.0]
----------------------------
48.0 % done
Best ROUGE score: 0.17884
Current ROUGE score: 0.17884
Best weights: [1.0, 1.0]
----------------------------
49.0 % done
Best ROUGE score: 0.17884
Current ROUGE score: 0.17884
Best weights: [1.0, 1.0]
----------------------------
50.0 % done
Best ROUGE score: 0.17884
Current ROUGE score: 0.17884
Best weights: [1.0, 1.0]
----------------------------
51.0 % done
Best ROUGE score: 0.17884
Current ROUGE score: 0.17884
Best weights: [1.0, 1.0]
----------------------------
52.0 % done
Best ROUGE score: 0.17884
Current ROUGE score: 0.17884
Best weights: [1.0, 1.0]
----------------------------
53.0 % done
Best ROUGE score: 0.17884
Current ROUGE score: 0.17884
Best weights: [1.0, 1.0]
----------------------------
54.0 % done
Best ROUGE score: 0.17884
Current ROUGE score: 0.17884
Best weights: [1.0, 1.0]
----------------------------
55.00000000000001 % done
Best ROUGE score: 0.17884
Current ROUGE score: 0.17884
Best weights: [1.0, 1.0]
----------------------------
56.00000000000001 % done
Best ROUGE score: 0.17884
Current ROUGE score: 0.17884
Best weights: [1.0, 1.0]
----------------------------
56.99999999999999 % done
Best ROUGE score: 0.17884
Current ROUGE score: 0.17884
Best weights: [1.0, 1.0]
----------------------------
57.99999999999999 % done
Best ROUGE score: 0.17884
Current ROUGE score: 0.17884
Best weights: [1.0, 1.0]
----------------------------
59.0 % done
Best ROUGE score: 0.17884
Current ROUGE score: 0.17884
Best weights: [1.0, 1.0]
----------------------------
60.0 % done
Best ROUGE score: 0.17884
Current ROUGE score: 0.17884
Best weights: [1.0, 1.0]
----------------------------
61.0 % done
Best ROUGE score: 0.17884
Current ROUGE score: 0.17884
Best weights: [1.0, 1.0]
----------------------------
62.0 % done
Best ROUGE score: 0.17884
Current ROUGE score: 0.17884
Best weights: [1.0, 1.0]
----------------------------
63.0 % done
Best ROUGE score: 0.17884
Current ROUGE score: 0.17884
Best weights: [1.0, 1.0]
----------------------------
64.0 % done
Best ROUGE score: 0.17884
Current ROUGE score: 0.17884
Best weights: [1.0, 1.0]
----------------------------
65.0 % done
Best ROUGE score: 0.17884
Current ROUGE score: 0.17884
Best weights: [1.0, 1.0]
----------------------------
66.0 % done
Best ROUGE score: 0.17884
Current ROUGE score: 0.17884
Best weights: [1.0, 1.0]
----------------------------
67.0 % done
Best ROUGE score: 0.17884
Current ROUGE score: 0.17884
Best weights: [1.0, 1.0]
----------------------------
68.0 % done
Best ROUGE score: 0.17884
Current ROUGE score: 0.17884
Best weights: [1.0, 1.0]
----------------------------
69.0 % done
Best ROUGE score: 0.17884
Current ROUGE score: 0.17884
Best weights: [1.0, 1.0]
----------------------------
70.0 % done
Best ROUGE score: 0.17884
Current ROUGE score: 0.17884
Best weights: [1.0, 1.0]
----------------------------
71.0 % done
Best ROUGE score: 0.17884
Current ROUGE score: 0.17884
Best weights: [1.0, 1.0]
----------------------------
72.0 % done
Best ROUGE score: 0.17884
Current ROUGE score: 0.17884
Best weights: [1.0, 1.0]
----------------------------
73.0 % done
Best ROUGE score: 0.17884
Current ROUGE score: 0.17884
Best weights: [1.0, 1.0]
----------------------------
74.0 % done
Best ROUGE score: 0.17884
Current ROUGE score: 0.17884
Best weights: [1.0, 1.0]
----------------------------
75.0 % done
Best ROUGE score: 0.17884
Current ROUGE score: 0.17884
Best weights: [1.0, 1.0]
----------------------------
76.0 % done
Best ROUGE score: 0.17884
Current ROUGE score: 0.17884
Best weights: [1.0, 1.0]
----------------------------
77.0 % done
Best ROUGE score: 0.17884
Current ROUGE score: 0.17884
Best weights: [1.0, 1.0]
----------------------------
78.0 % done
Best ROUGE score: 0.17884
Current ROUGE score: 0.17884
Best weights: [1.0, 1.0]
----------------------------
79.0 % done
Best ROUGE score: 0.17884
Current ROUGE score: 0.17884
Best weights: [1.0, 1.0]
----------------------------
80.0 % done
Best ROUGE score: 0.17884
Current ROUGE score: 0.17884
Best weights: [1.0, 1.0]
----------------------------
81.0 % done
Best ROUGE score: 0.17884
Current ROUGE score: 0.17884
Best weights: [1.0, 1.0]
----------------------------
82.0 % done
Best ROUGE score: 0.17884
Current ROUGE score: 0.17884
Best weights: [1.0, 1.0]
----------------------------
83.0 % done
Best ROUGE score: 0.17884
Current ROUGE score: 0.17884
Best weights: [1.0, 1.0]
----------------------------
84.0 % done
Best ROUGE score: 0.17884
Current ROUGE score: 0.17884
Best weights: [1.0, 1.0]
----------------------------
85.0 % done
Best ROUGE score: 0.17884
Current ROUGE score: 0.17884
Best weights: [1.0, 1.0]
----------------------------
86.0 % done
Best ROUGE score: 0.17884
Current ROUGE score: 0.17884
Best weights: [1.0, 1.0]
----------------------------
87.0 % done
Best ROUGE score: 0.17884
Current ROUGE score: 0.17884
Best weights: [1.0, 1.0]
----------------------------
88.0 % done
Best ROUGE score: 0.17884
Current ROUGE score: 0.17884
Best weights: [1.0, 1.0]
----------------------------
89.0 % done
Best ROUGE score: 0.17884
Current ROUGE score: 0.17884
Best weights: [1.0, 1.0]
----------------------------
90.0 % done
Best ROUGE score: 0.17884
Current ROUGE score: 0.17884
Best weights: [1.0, 1.0]
----------------------------
91.0 % done
Best ROUGE score: 0.17884
Current ROUGE score: 0.17884
Best weights: [1.0, 1.0]
----------------------------
92.0 % done
Best ROUGE score: 0.17884
Current ROUGE score: 0.17884
Best weights: [1.0, 1.0]
----------------------------
93.0 % done
Best ROUGE score: 0.17884
Current ROUGE score: 0.17884
Best weights: [1.0, 1.0]
----------------------------
94.0 % done
Best ROUGE score: 0.17884
Current ROUGE score: 0.17884
Best weights: [1.0, 1.0]
----------------------------
95.0 % done
Best ROUGE score: 0.17884
Current ROUGE score: 0.17884
Best weights: [1.0, 1.0]
----------------------------
96.0 % done
Best ROUGE score: 0.17884
Current ROUGE score: 0.17884
Best weights: [1.0, 1.0]
----------------------------
97.0 % done
Best ROUGE score: 0.17884
Current ROUGE score: 0.17884
Best weights: [1.0, 1.0]
----------------------------
98.0 % done
Best ROUGE score: 0.17884
Current ROUGE score: 0.17884
Best weights: [1.0, 1.0]
----------------------------
99.0 % done
Best ROUGE score: 0.17884
Current ROUGE score: 0.17884
Best weights: [1.0, 1.0]
----------------------------
100.0 % done
Best ROUGE score: 0.17884
Current ROUGE score: 0.17884
Best weights: [1.0, 1.0]
Final weights: [1.0, 1.0]

--------------------------------------------------------

Experiment 5 - find_weights(1,2,5)

----------------------------
4.0 % done
Best ROUGE score: 0.16962
Current ROUGE score: 0.16962
Best weights: [1.0, 1.0]
Current weights: [1.0, 1.0]
----------------------------
8.0 % done
Best ROUGE score: 0.171
Current ROUGE score: 0.171
Best weights: [1.0, 1.25]
Current weights: [1.0, 1.25]
----------------------------
12.0 % done
Best ROUGE score: 0.17271
Current ROUGE score: 0.17271
Best weights: [1.0, 1.5]
Current weights: [1.0, 1.5]
----------------------------
16.0 % done
Best ROUGE score: 0.17292
Current ROUGE score: 0.17292
Best weights: [1.0, 1.75]
Current weights: [1.0, 1.75]
----------------------------
20.0 % done
Best ROUGE score: 0.17292
Current ROUGE score: 0.17288
Best weights: [1.0, 1.75]
Current weights: [1.0, 2.0]
----------------------------
24.0 % done
Best ROUGE score: 0.17297
Current ROUGE score: 0.17297
Best weights: [1.25, 1.0]
Current weights: [1.25, 1.0]
----------------------------
28.000000000000004 % done
Best ROUGE score: 0.17297
Current ROUGE score: 0.16962
Best weights: [1.25, 1.0]
Current weights: [1.25, 1.25]
----------------------------
32.0 % done
Best ROUGE score: 0.17297
Current ROUGE score: 0.171
Best weights: [1.25, 1.0]
Current weights: [1.25, 1.5]
----------------------------
36.0 % done
Best ROUGE score: 0.17297
Current ROUGE score: 0.17102
Best weights: [1.25, 1.0]
Current weights: [1.25, 1.75]
----------------------------
40.0 % done
Best ROUGE score: 0.17297
Current ROUGE score: 0.17295
Best weights: [1.25, 1.0]
Current weights: [1.25, 2.0]
----------------------------
44.0 % done
Best ROUGE score: 0.17632
Current ROUGE score: 0.17632
Best weights: [1.5, 1.0]
Current weights: [1.5, 1.0]
----------------------------
48.0 % done
Best ROUGE score: 0.17632
Current ROUGE score: 0.17297
Best weights: [1.5, 1.0]
Current weights: [1.5, 1.25]
----------------------------
52.0 % done
Best ROUGE score: 0.17632
Current ROUGE score: 0.16962
Best weights: [1.5, 1.0]
Current weights: [1.5, 1.5]
----------------------------
56.00000000000001 % done
Best ROUGE score: 0.17632
Current ROUGE score: 0.171
Best weights: [1.5, 1.0]
Current weights: [1.5, 1.75]
----------------------------
60.0 % done
Best ROUGE score: 0.17632
Current ROUGE score: 0.17102
Best weights: [1.5, 1.0]
Current weights: [1.5, 2.0]
----------------------------
64.0 % done
Best ROUGE score: 0.17746
Current ROUGE score: 0.17746
Best weights: [1.75, 1.0]
Current weights: [1.75, 1.0]
----------------------------
68.0 % done
Best ROUGE score: 0.17746
Current ROUGE score: 0.17374
Best weights: [1.75, 1.0]
Current weights: [1.75, 1.25]
----------------------------
72.0 % done
Best ROUGE score: 0.17746
Current ROUGE score: 0.17297
Best weights: [1.75, 1.0]
Current weights: [1.75, 1.5]
----------------------------
76.0 % done
Best ROUGE score: 0.17746
Current ROUGE score: 0.16962
Best weights: [1.75, 1.0]
Current weights: [1.75, 1.75]
----------------------------
80.0 % done
Best ROUGE score: 0.17746
Current ROUGE score: 0.171
Best weights: [1.75, 1.0]
Current weights: [1.75, 2.0]
----------------------------
84.0 % done
Best ROUGE score: 0.17746
Current ROUGE score: 0.17657
Best weights: [1.75, 1.0]
Current weights: [2.0, 1.0]
----------------------------
88.0 % done
Best ROUGE score: 0.17851
Current ROUGE score: 0.17851
Best weights: [2.0, 1.25]
Current weights: [2.0, 1.25]
----------------------------
92.0 % done
Best ROUGE score: 0.17851
Current ROUGE score: 0.173
Best weights: [2.0, 1.25]
Current weights: [2.0, 1.5]
----------------------------
96.0 % done
Best ROUGE score: 0.17851
Current ROUGE score: 0.17297
Best weights: [2.0, 1.25]
Current weights: [2.0, 1.75]
----------------------------
100.0 % done
Best ROUGE score: 0.17851
Current ROUGE score: 0.16962
Best weights: [2.0, 1.25]
Current weights: [2.0, 2.0]
----------------------------
Final weights: [2.0, 1.25]
[2.0, 1.25]

--------------------------------------------------------

Experiment 6 - find_thresholds(0, 0.4, 10)

----------------------------
2.22% done
Best ROUGE score: 0.16897
Current ROUGE score: 0.16897
Best thresholds: [0.040000000000000001, 0.0]
Current thresholds: [0.04, 0.0]
----------------------------
4.44% done
Best ROUGE score: 0.16897
Current ROUGE score: 0.16714
Best thresholds: [0.040000000000000001, 0.0]
Current thresholds: [0.08, 0.0]
----------------------------
6.67% done
Best ROUGE score: 0.16897
Current ROUGE score: 0.16757
Best thresholds: [0.040000000000000001, 0.0]
Current thresholds: [0.08, 0.04]
----------------------------
8.89% done
Best ROUGE score: 0.17373
Current ROUGE score: 0.17373
Best thresholds: [0.12, 0.0]
Current thresholds: [0.12, 0.0]
----------------------------
11.11% done
Best ROUGE score: 0.17376
Current ROUGE score: 0.17376
Best thresholds: [0.12, 0.040000000000000001]
Current thresholds: [0.12, 0.04]
----------------------------
13.33% done
Best ROUGE score: 0.17631
Current ROUGE score: 0.17631
Best thresholds: [0.12, 0.080000000000000002]
Current thresholds: [0.12, 0.08]
----------------------------
15.56% done
Best ROUGE score: 0.17767
Current ROUGE score: 0.17767
Best thresholds: [0.16, 0.0]
Current thresholds: [0.16, 0.0]
----------------------------
17.78% done
Best ROUGE score: 0.17767
Current ROUGE score: 0.17734
Best thresholds: [0.16, 0.0]
Current thresholds: [0.16, 0.04]
----------------------------
20.00% done
Best ROUGE score: 0.17982
Current ROUGE score: 0.17982
Best thresholds: [0.16, 0.080000000000000002]
Current thresholds: [0.16, 0.08]
----------------------------
22.22% done
Best ROUGE score: 0.17995
Current ROUGE score: 0.17995
Best thresholds: [0.16, 0.12]
Current thresholds: [0.16, 0.12]
----------------------------
24.44% done
Best ROUGE score: 0.17995
Current ROUGE score: 0.17458
Best thresholds: [0.16, 0.12]
Current thresholds: [0.2, 0.0]
----------------------------
26.67% done
Best ROUGE score: 0.17995
Current ROUGE score: 0.17567
Best thresholds: [0.16, 0.12]
Current thresholds: [0.2, 0.04]
----------------------------
28.89% done
Best ROUGE score: 0.17995
Current ROUGE score: 0.17627
Best thresholds: [0.16, 0.12]
Current thresholds: [0.2, 0.08]
----------------------------
31.11% done
Best ROUGE score: 0.17995
Current ROUGE score: 0.16535
Best thresholds: [0.16, 0.12]
Current thresholds: [0.2, 0.12]
----------------------------
33.33% done
Best ROUGE score: 0.17995
Current ROUGE score: 0.15283
Best thresholds: [0.16, 0.12]
Current thresholds: [0.2, 0.16]
----------------------------
35.56% done
Best ROUGE score: 0.17995
Current ROUGE score: 0.16995
Best thresholds: [0.16, 0.12]
Current thresholds: [0.24, 0.0]
----------------------------
37.78% done
Best ROUGE score: 0.17995
Current ROUGE score: 0.17175
Best thresholds: [0.16, 0.12]
Current thresholds: [0.24, 0.04]
----------------------------
40.00% done
Best ROUGE score: 0.17995
Current ROUGE score: 0.16865
Best thresholds: [0.16, 0.12]
Current thresholds: [0.24, 0.08]
----------------------------
42.22% done
Best ROUGE score: 0.17995
Current ROUGE score: 0.16261
Best thresholds: [0.16, 0.12]
Current thresholds: [0.24, 0.12]
----------------------------
44.44% done
Best ROUGE score: 0.17995
Current ROUGE score: 0.15022
Best thresholds: [0.16, 0.12]
Current thresholds: [0.24, 0.16]
----------------------------
46.67% done
Best ROUGE score: 0.17995
Current ROUGE score: 0.14435
Best thresholds: [0.16, 0.12]
Current thresholds: [0.24, 0.2]
----------------------------
48.89% done
Best ROUGE score: 0.18158
Current ROUGE score: 0.18158
Best thresholds: [0.28000000000000003, 0.0]
Current thresholds: [0.28, 0.0]
----------------------------
51.11% done
Best ROUGE score: 0.18283
Current ROUGE score: 0.18283
Best thresholds: [0.28000000000000003, 0.040000000000000001]
Current thresholds: [0.28, 0.04]
----------------------------
53.33% done
Best ROUGE score: 0.18283
Current ROUGE score: 0.1761
Best thresholds: [0.28000000000000003, 0.040000000000000001]
Current thresholds: [0.28, 0.08]
----------------------------
55.56% done
Best ROUGE score: 0.18283
Current ROUGE score: 0.16405
Best thresholds: [0.28000000000000003, 0.040000000000000001]
Current thresholds: [0.28, 0.12]
----------------------------
57.78% done
Best ROUGE score: 0.18283
Current ROUGE score: 0.15012
Best thresholds: [0.28000000000000003, 0.040000000000000001]
Current thresholds: [0.28, 0.16]
----------------------------
60.00% done
Best ROUGE score: 0.18283
Current ROUGE score: 0.14287
Best thresholds: [0.28000000000000003, 0.040000000000000001]
Current thresholds: [0.28, 0.2]
----------------------------
62.22% done
Best ROUGE score: 0.18283
Current ROUGE score: 0.14303
Best thresholds: [0.28000000000000003, 0.040000000000000001]
Current thresholds: [0.28, 0.24]
----------------------------
64.44% done
Best ROUGE score: 0.18283
Current ROUGE score: 0.1778
Best thresholds: [0.28000000000000003, 0.040000000000000001]
Current thresholds: [0.32, 0.0]
----------------------------
66.67% done
Best ROUGE score: 0.18283
Current ROUGE score: 0.18118
Best thresholds: [0.28000000000000003, 0.040000000000000001]
Current thresholds: [0.32, 0.04]
----------------------------
68.89% done
Best ROUGE score: 0.18283
Current ROUGE score: 0.17647
Best thresholds: [0.28000000000000003, 0.040000000000000001]
Current thresholds: [0.32, 0.08]
----------------------------
71.11% done
Best ROUGE score: 0.18283
Current ROUGE score: 0.16206
Best thresholds: [0.28000000000000003, 0.040000000000000001]
Current thresholds: [0.32, 0.12]
----------------------------
73.33% done
Best ROUGE score: 0.18283
Current ROUGE score: 0.14965
Best thresholds: [0.28000000000000003, 0.040000000000000001]
Current thresholds: [0.32, 0.16]
----------------------------
75.56% done
Best ROUGE score: 0.18283
Current ROUGE score: 0.14091
Best thresholds: [0.28000000000000003, 0.040000000000000001]
Current thresholds: [0.32, 0.2]
----------------------------
77.78% done
Best ROUGE score: 0.18283
Current ROUGE score: 0.14298
Best thresholds: [0.28000000000000003, 0.040000000000000001]
Current thresholds: [0.32, 0.24]
----------------------------
80.00% done
Best ROUGE score: 0.18283
Current ROUGE score: 0.13946
Best thresholds: [0.28000000000000003, 0.040000000000000001]
Current thresholds: [0.32, 0.28]
----------------------------
82.22% done
Best ROUGE score: 0.18283
Current ROUGE score: 0.16701
Best thresholds: [0.28000000000000003, 0.040000000000000001]
Current thresholds: [0.36, 0.0]
----------------------------
84.44% done
Best ROUGE score: 0.18283
Current ROUGE score: 0.17052
Best thresholds: [0.28000000000000003, 0.040000000000000001]
Current thresholds: [0.36, 0.04]
----------------------------
86.67% done
Best ROUGE score: 0.18283
Current ROUGE score: 0.17437
Best thresholds: [0.28000000000000003, 0.040000000000000001]
Current thresholds: [0.36, 0.08]
----------------------------
88.89% done
Best ROUGE score: 0.18283
Current ROUGE score: 0.15915
Best thresholds: [0.28000000000000003, 0.040000000000000001]
Current thresholds: [0.36, 0.12]
----------------------------
91.11% done
Best ROUGE score: 0.18283
Current ROUGE score: 0.14914
Best thresholds: [0.28000000000000003, 0.040000000000000001]
Current thresholds: [0.36, 0.16]
----------------------------
93.33% done
Best ROUGE score: 0.18283
Current ROUGE score: 0.13954
Best thresholds: [0.28000000000000003, 0.040000000000000001]
Current thresholds: [0.36, 0.2]
----------------------------
95.56% done
Best ROUGE score: 0.18283
Current ROUGE score: 0.13915
Best thresholds: [0.28000000000000003, 0.040000000000000001]
Current thresholds: [0.36, 0.24]
----------------------------
97.78% done
Best ROUGE score: 0.18283
Current ROUGE score: 0.13748
Best thresholds: [0.28000000000000003, 0.040000000000000001]
Current thresholds: [0.36, 0.28]
----------------------------
100.00% done
Best ROUGE score: 0.18283
Current ROUGE score: 0.13792
Best thresholds: [0.28000000000000003, 0.040000000000000001]
Current thresholds: [0.36, 0.32]
----------------------------
Final thresholds: [0.28000000000000003, 0.040000000000000001]
[0.28000000000000003, 0.040000000000000001]